dump.vcd
$date
	Mon Oct 14 22:38:08 2024
$end
$version
	Icarus Verilog
$end
$timescale
	1s
$end
$scope module Pipeline_tb $end
$var reg 1 ! clk $end
$var reg 1 " rst $end
$scope module CPU $end
$var wire 1 ! clk $end
$var wire 1 " rst $end
$var wire 32 # WriteDataM [31:0] $end
$var wire 1 $ StallF $end
$var wire 1 % StallD $end
$var wire 32 & ResultW [31:0] $end
$var wire 2 ' ResultSrcW [1:0] $end
$var wire 2 ( ResultSrcM [1:0] $end
$var wire 2 ) ResultSrcE [1:0] $end
$var wire 1 * RegWriteW $end
$var wire 1 + RegWriteM $end
$var wire 1 , RegWriteE $end
$var wire 32 - ReadDataW [31:0] $end
$var wire 5 . RS2_E [4:0] $end
$var wire 5 / RS1_E [4:0] $end
$var wire 5 0 RD_M [4:0] $end
$var wire 5 1 RD_E [4:0] $end
$var wire 5 2 RDW [4:0] $end
$var wire 32 3 RD2_E [31:0] $end
$var wire 32 4 RD1_E [31:0] $end
$var wire 32 5 PCTargetE [31:0] $end
$var wire 1 6 PCSrcE $end
$var wire 32 7 PCPlus4W [31:0] $end
$var wire 32 8 PCPlus4M [31:0] $end
$var wire 32 9 PCPlus4E [31:0] $end
$var wire 32 : PCPlus4D [31:0] $end
$var wire 32 ; PCE [31:0] $end
$var wire 32 < PCD [31:0] $end
$var wire 1 = MemWriteM $end
$var wire 1 > MemWriteE $end
$var wire 1 ? JumpE $end
$var wire 32 @ InstrD [31:0] $end
$var wire 32 A Imm_Ext_E [31:0] $end
$var wire 2 B ForwardBE [1:0] $end
$var wire 2 C ForwardAE [1:0] $end
$var wire 1 D FlushE $end
$var wire 1 E FlushD $end
$var wire 1 F BranchE $end
$var wire 32 G ALU_ResultW [31:0] $end
$var wire 32 H ALU_ResultM [31:0] $end
$var wire 1 I ALUSrcE $end
$var wire 3 J ALUControlE [2:0] $end
$scope module Decode_Stage $end
$var wire 3 K ALUControlE [2:0] $end
$var wire 1 I ALUSrcE $end
$var wire 1 F BranchE $end
$var wire 32 L Imm_Ext_E [31:0] $end
$var wire 1 ? JumpE $end
$var wire 1 > MemWriteE $end
$var wire 32 M PCE [31:0] $end
$var wire 32 N PCPlus4E [31:0] $end
$var wire 32 O RD1_E [31:0] $end
$var wire 32 P RD2_E [31:0] $end
$var wire 5 Q RD_E [4:0] $end
$var wire 5 R RS1_E [4:0] $end
$var wire 5 S RS2_E [4:0] $end
$var wire 1 , RegWriteE $end
$var wire 2 T ResultSrcE [1:0] $end
$var wire 1 U Zero $end
$var wire 1 ! clk $end
$var wire 1 " rst $end
$var wire 32 V ResultW [31:0] $end
$var wire 2 W ResultSrcD [1:0] $end
$var wire 1 * RegWriteW $end
$var wire 1 X RegWriteD $end
$var wire 5 Y RDW [4:0] $end
$var wire 32 Z RD2D [31:0] $end
$var wire 32 [ RD1D [31:0] $end
$var wire 32 \ PCPlus4D [31:0] $end
$var wire 32 ] PCD [31:0] $end
$var wire 1 ^ MemWriteD $end
$var wire 1 _ JumpD $end
$var wire 32 ` InstrD [31:0] $end
$var wire 32 a Imm_ExtD [31:0] $end
$var wire 2 b ImmSrcD [1:0] $end
$var wire 1 D FlushE $end
$var wire 1 c BranchD $end
$var wire 1 d ALUSrcD $end
$var wire 3 e ALUControlD [2:0] $end
$var reg 3 f ALUControlD_r [2:0] $end
$var reg 1 I ALUSrcD_r $end
$var reg 1 F BranchD_r $end
$var reg 32 g Imm_ExtD_r [31:0] $end
$var reg 1 ? JumpD_r $end
$var reg 1 h MemWriteD_r $end
$var reg 32 i PCD_r [31:0] $end
$var reg 32 j PCPlus4D_r [31:0] $end
$var reg 32 k RD1D_r [31:0] $end
$var reg 32 l RD2D_r [31:0] $end
$var reg 5 m RD_D_r [4:0] $end
$var reg 5 n RS1_D_r [4:0] $end
$var reg 5 o RS2_D_r [4:0] $end
$var reg 1 p RegWriteD_r $end
$var reg 2 q ResultSrcD_r [1:0] $end
$scope module Control_Unit $end
$var wire 1 c Branch $end
$var wire 1 _ Jump $end
$var wire 7 r Op [6:0] $end
$var wire 1 U Zero $end
$var wire 3 s funct3 [2:0] $end
$var wire 7 t funct7 [6:0] $end
$var wire 1 u jump $end
$var wire 1 v branch $end
$var wire 2 w ResultSrc [1:0] $end
$var wire 1 X RegWrite $end
$var wire 1 ^ MemWrite $end
$var wire 2 x ImmSrc [1:0] $end
$var wire 1 d ALUSrc $end
$var wire 2 y ALUOp [1:0] $end
$var wire 3 z ALUControl [2:0] $end
$scope module alu_dec $end
$var wire 7 { Op [6:0] $end
$var wire 3 | funct3 [2:0] $end
$var wire 7 } funct7 [6:0] $end
$var wire 2 ~ concate [1:0] $end
$var wire 2 !" ALUOp [1:0] $end
$var wire 3 "" ALUControl [2:0] $end
$upscope $end
$scope module main_dec $end
$var wire 7 #" Op [6:0] $end
$var wire 2 $" ResultSrc [1:0] $end
$var wire 1 X RegWrite $end
$var wire 1 ^ MemWrite $end
$var wire 1 u Jump $end
$var wire 2 %" ImmSrc [1:0] $end
$var wire 1 v Branch $end
$var wire 1 d ALUSrc $end
$var wire 2 &" ALUOp [1:0] $end
$upscope $end
$upscope $end
$scope module Regiser_File $end
$var wire 5 '" A1 [4:0] $end
$var wire 5 (" A2 [4:0] $end
$var wire 1 ! clk $end
$var wire 1 " rst $end
$var wire 1 * WE3 $end
$var wire 32 )" WD3 [31:0] $end
$var wire 32 *" RD2 [31:0] $end
$var wire 32 +" RD1 [31:0] $end
$var wire 5 ," A3 [4:0] $end
$upscope $end
$scope module SignExtend $end
$var wire 2 -" ImmSrc [1:0] $end
$var wire 32 ." In [31:0] $end
$var wire 32 /" Imm_Ext [31:0] $end
$upscope $end
$upscope $end
$scope module Execute_Stage $end
$var wire 3 0" ALUControlE [2:0] $end
$var wire 1 I ALUSrcE $end
$var wire 1 F BranchE $end
$var wire 32 1" Imm_Ext_E [31:0] $end
$var wire 1 ? JumpE $end
$var wire 1 > MemWriteE $end
$var wire 1 = MemWriteM $end
$var wire 32 2" PCE [31:0] $end
$var wire 32 3" PCPlus4E [31:0] $end
$var wire 32 4" PCPlus4M [31:0] $end
$var wire 1 6 PCSrcE $end
$var wire 32 5" RD1_E [31:0] $end
$var wire 32 6" RD2_E [31:0] $end
$var wire 5 7" RD_E [4:0] $end
$var wire 5 8" RD_M [4:0] $end
$var wire 1 , RegWriteE $end
$var wire 1 + RegWriteM $end
$var wire 2 9" ResultSrcE [1:0] $end
$var wire 2 :" ResultSrcM [1:0] $end
$var wire 32 ;" WriteDataM [31:0] $end
$var wire 1 ! clk $end
$var wire 1 " rst $end
$var wire 1 <" ZeroE $end
$var wire 32 =" SrcBE [31:0] $end
$var wire 32 >" SrcB [31:0] $end
$var wire 32 ?" SrcAE [31:0] $end
$var wire 32 @" ResultW [31:0] $end
$var wire 32 A" ResultE [31:0] $end
$var wire 32 B" PCTargetE [31:0] $end
$var wire 2 C" ForwardB_E [1:0] $end
$var wire 2 D" ForwardA_E [1:0] $end
$var wire 32 E" ALU_ResultM [31:0] $end
$var reg 1 F" MemWriteE_r $end
$var reg 32 G" PCPlus4E_r [31:0] $end
$var reg 32 H" RD2_E_r [31:0] $end
$var reg 5 I" RD_E_r [4:0] $end
$var reg 1 + RegWriteE_r $end
$var reg 32 J" ResultE_r [31:0] $end
$var reg 2 K" ResultSrcE_r [1:0] $end
$scope module ALU $end
$var wire 3 L" ALUControl [2:0] $end
$var wire 32 M" AandB [31:0] $end
$var wire 32 N" AorB [31:0] $end
$var wire 1 O" Carry $end
$var wire 1 P" OverFlow $end
$var wire 1 Q" Zeroextnd $end
$var wire 32 R" sum [31:0] $end
$var wire 32 S" slt [31:0] $end
$var wire 32 T" mux1 [31:0] $end
$var wire 1 U" cout $end
$var wire 1 <" Zero $end
$var wire 32 V" Result [31:0] $end
$var wire 1 W" Negative $end
$var wire 32 X" B [31:0] $end
$var wire 32 Y" A [31:0] $end
$var parameter 32 Z" n $end
$upscope $end
$scope module ALU_Src_MUX $end
$var wire 32 [" b [31:0] $end
$var wire 1 I s $end
$var wire 32 \" y [31:0] $end
$var wire 32 ]" a [31:0] $end
$upscope $end
$scope module Branch_adder $end
$var wire 32 ^" a [31:0] $end
$var wire 32 _" b [31:0] $end
$var wire 32 `" c [31:0] $end
$upscope $end
$scope module SrcAMux $end
$var wire 32 a" a [31:0] $end
$var wire 32 b" c [31:0] $end
$var wire 32 c" y [31:0] $end
$var wire 2 d" s [1:0] $end
$var wire 32 e" b [31:0] $end
$upscope $end
$scope module SrcBMux $end
$var wire 32 f" a [31:0] $end
$var wire 32 g" c [31:0] $end
$var wire 32 h" y [31:0] $end
$var wire 2 i" s [1:0] $end
$var wire 32 j" b [31:0] $end
$upscope $end
$upscope $end
$scope module Fetch_Stage $end
$var wire 1 6 PCSrcE $end
$var wire 32 k" PCTargetE [31:0] $end
$var wire 1 ! clk $end
$var wire 1 " rst $end
$var wire 1 $ StallF $end
$var wire 1 % StallD $end
$var wire 32 l" PC_F [31:0] $end
$var wire 32 m" PCPlus4F [31:0] $end
$var wire 32 n" PCPlus4D [31:0] $end
$var wire 32 o" PCF [31:0] $end
$var wire 32 p" PCD [31:0] $end
$var wire 32 q" InstrF [31:0] $end
$var wire 32 r" InstrD [31:0] $end
$var wire 1 E FlushD $end
$var reg 32 s" InstrF_reg [31:0] $end
$var reg 32 t" PCF_reg [31:0] $end
$var reg 32 u" PCPlus4F_reg [31:0] $end
$scope module IMEM $end
$var wire 1 " rst $end
$var wire 32 v" RD [31:0] $end
$var wire 32 w" A [31:0] $end
$upscope $end
$scope module PCAdder $end
$var wire 32 x" b [31:0] $end
$var wire 32 y" c [31:0] $end
$var wire 32 z" a [31:0] $end
$upscope $end
$scope module PC_MUX $end
$var wire 32 {" a [31:0] $end
$var wire 32 |" b [31:0] $end
$var wire 1 6 s $end
$var wire 32 }" y [31:0] $end
$upscope $end
$scope module programm_counter $end
$var wire 32 ~" PC_NEXT [31:0] $end
$var wire 1 ! clk $end
$var wire 1 " rst $end
$var wire 1 $ En $end
$var reg 32 !# PC [31:0] $end
$upscope $end
$upscope $end
$scope module Forwarding_Block $end
$var wire 1 E FlushD $end
$var wire 1 D FlushE $end
$var wire 1 6 PCSrcE $end
$var wire 5 "# RD_E [4:0] $end
$var wire 5 ## RD_M [4:0] $end
$var wire 5 $# RS1_D [4:0] $end
$var wire 5 %# RS1_E [4:0] $end
$var wire 5 &# RS2_D [4:0] $end
$var wire 5 '# RS2_E [4:0] $end
$var wire 1 + RegWriteM $end
$var wire 1 (# ResultSrcE0 $end
$var wire 1 % StallD $end
$var wire 1 $ StallF $end
$var wire 1 " rst $end
$var wire 1 )# lwStall $end
$var wire 1 * RegWriteW $end
$var wire 5 *# RD_W [4:0] $end
$var wire 2 +# ForwardBE [1:0] $end
$var wire 2 ,# ForwardAE [1:0] $end
$upscope $end
$scope module Memory_Stage $end
$var wire 32 -# ALU_ResultM [31:0] $end
$var wire 32 .# ALU_ResultW [31:0] $end
$var wire 1 = MemWriteM $end
$var wire 32 /# PCPlus4M [31:0] $end
$var wire 32 0# PCPlus4W [31:0] $end
$var wire 5 1# RD_M [4:0] $end
$var wire 5 2# RD_W [4:0] $end
$var wire 1 + RegWriteM $end
$var wire 1 * RegWriteW $end
$var wire 2 3# ResultSrcM [1:0] $end
$var wire 2 4# ResultSrcW [1:0] $end
$var wire 32 5# WriteDataM [31:0] $end
$var wire 1 ! clk $end
$var wire 1 " rst $end
$var wire 32 6# ReadMem [31:0] $end
$var wire 32 7# ReadDataW [31:0] $end
$var reg 32 8# ALU_ResultM_r [31:0] $end
$var reg 32 9# PCPlus4M_r [31:0] $end
$var reg 5 :# RD_M_r [4:0] $end
$var reg 32 ;# ReadMem_r [31:0] $end
$var reg 1 * RegWriteM_r $end
$var reg 2 <# ResultSrcM_r [1:0] $end
$scope module Data_Memory $end
$var wire 32 =# A [31:0] $end
$var wire 32 ># WD [31:0] $end
$var wire 1 = WE $end
$var wire 1 ! clk $end
$var wire 1 " rst $end
$var wire 32 ?# RD [31:0] $end
$var integer 32 @# i [31:0] $end
$upscope $end
$upscope $end
$scope module WriteBack_Stage $end
$var wire 32 A# ALU_ResultW [31:0] $end
$var wire 32 B# PCPlus4W [31:0] $end
$var wire 32 C# ReadDataW [31:0] $end
$var wire 2 D# ResultSrcW [1:0] $end
$var wire 1 ! clk $end
$var wire 1 " rst $end
$var wire 32 E# ResultW [31:0] $end
$scope module WriteBack_Mux $end
$var wire 32 F# a [31:0] $end
$var wire 32 G# b [31:0] $end
$var wire 32 H# c [31:0] $end
$var wire 2 I# s [1:0] $end
$var wire 32 J# y [31:0] $end
$upscope $end
$upscope $end
$upscope $end
$upscope $end
$enddefinitions $end
$comment Show the parameter values. $end
$dumpall
b100000 Z"
$end
#0
$dumpvars
b0 J#
b0 I#
b0 H#
b0 G#
b0 F#
b0 E#
b0 D#
b0 C#
b0 B#
b0 A#
b10000000000 @#
b0 ?#
b0 >#
b0 =#
b0 <#
b0 ;#
b0 :#
b0 9#
b0 8#
b0 7#
b0 6#
b0 5#
b0 4#
b0 3#
b0 2#
b0 1#
b0 0#
b0 /#
b0 .#
b0 -#
b0 ,#
b0 +#
b0 *#
0)#
0(#
b0 '#
b0 &#
b0 %#
b0 $#
b0 ##
b0 "#
bx !#
bx ~"
bx }"
b0 |"
bx {"
bx z"
bx y"
b100 x"
bx w"
b0 v"
b0 u"
b0 t"
b0 s"
b0 r"
b0 q"
b0 p"
bx o"
b0 n"
bx m"
bx l"
b0 k"
b0 j"
b0 i"
b0 h"
b0 g"
b0 f"
b0 e"
b0 d"
b0 c"
b0 b"
b0 a"
b0 `"
b0 _"
b0 ^"
b0 ]"
b0 \"
b0 ["
b0 Y"
b0 X"
0W"
b0 V"
0U"
b0 T"
b0 S"
b0 R"
0Q"
0P"
0O"
b0 N"
b0 M"
b0 L"
b0 K"
b0 J"
b0 I"
b0 H"
b0 G"
0F"
b0 E"
b0 D"
b0 C"
b0 B"
b0 A"
b0 @"
b0 ?"
b0 >"
b0 ="
1<"
b0 ;"
b0 :"
b0 9"
b0 8"
b0 7"
b0 6"
b0 5"
b0 4"
b0 3"
b0 2"
b0 1"
b0 0"
b0 /"
b0 ."
b0 -"
b0 ,"
b0 +"
b0 *"
b0 )"
b0 ("
b0 '"
b0 &"
b0 %"
b0 $"
b0 #"
b0 ""
b0 !"
b0 ~
b0 }
b0 |
b0 {
b0 z
b0 y
b0 x
b0 w
0v
0u
b0 t
b0 s
b0 r
b0 q
0p
b0 o
b0 n
b0 m
b0 l
b0 k
b0 j
b0 i
0h
b0 g
b0 f
b0 e
0d
0c
b0 b
b0 a
b0 `
0_
0^
b0 ]
b0 \
b0 [
b0 Z
b0 Y
0X
b0 W
b0 V
zU
b0 T
b0 S
b0 R
b0 Q
b0 P
b0 O
b0 N
b0 M
b0 L
b0 K
b0 J
0I
b0 H
b0 G
0F
0E
0D
b0 C
b0 B
b0 A
b0 @
0?
0>
0=
b0 <
b0 ;
b0 :
b0 9
b0 8
b0 7
06
b0 5
b0 4
b0 3
b0 2
b0 1
b0 0
b0 /
b0 .
b0 -
0,
0+
0*
b0 )
b0 (
b0 '
b0 &
0%
0$
b0 #
0"
0!
$end
#50
b100 l"
b100 }"
b100 ~"
b100 m"
b100 y"
b100 {"
b0 o"
b0 w"
b0 z"
b0 !#
1!
#100
0!
#150
1!
#200
b100000000101010010011 q"
b100000000101010010011 v"
0!
1"
#250
b1 a
b1 /"
1X
bx Z
bx *"
1d
b10 y
b10 !"
b10 &"
b1 ("
b10011 r
b10011 {
b10011 #"
b1 &#
b1000 l"
b1000 }"
b1000 ~"
b10100010101010101110000011 q"
b10100010101010101110000011 v"
b100 :
b100 \
b100 n"
b100000000101010010011 @
b100000000101010010011 `
b100000000101010010011 ."
b100000000101010010011 r"
b1000 m"
b1000 y"
b1000 {"
b100 o"
b100 w"
b100 z"
b100 !#
b100 u"
b100000000101010010011 s"
1!
#300
0!
#350
b101000 a
b101000 /"
1X
0<"
bx [
bx +"
1d
b0 y
b0 !"
b0 &"
b1 A"
b1 V"
b1 W
b1 w
b1 $"
b1 R"
b1000 ("
b10101 '"
b1 t
b1 }
b10 s
b10 |
b11 r
b11 {
b11 #"
b1000 &#
b10101 $#
b1 T"
b1 N"
b1100 l"
b1100 }"
b1100 ~"
b1110010111111110000110011 q"
b1110010111111110000110011 v"
b1000 :
b1000 \
b1000 n"
b100 <
b100 ]
b100 p"
b10100010101010101110000011 @
b10100010101010101110000011 `
b10100010101010101110000011 ."
b10100010101010101110000011 r"
bx >"
bx ]"
bx h"
b1 ="
b1 X"
b1 \"
b1100 m"
b1100 y"
b1100 {"
b1000 o"
b1000 w"
b1000 z"
b1000 !#
b1000 u"
b100 t"
b10100010101010101110000011 s"
b1 .
b1 S
b1 o
b1 '#
b100 9
b100 N
b100 3"
b100 j
b10101 1
b10101 Q
b10101 m
b10101 7"
b10101 "#
b1 5
b1 B"
b1 `"
b1 k"
b1 |"
b1 A
b1 L
b1 g
b1 1"
b1 ["
b1 _"
bx 3
bx P
bx l
bx 6"
bx f"
1I
1,
1p
1!
#400
0!
#450
b10 e
b10 z
b10 ""
1D
1%
1$
1)#
0P"
b11100 a
b11100 /"
0d
b10 C
b10 D"
b10 d"
b10 ,#
b0 S"
0Q"
0W"
0<"
b1111 Z
b1111 *"
b1010 [
b1010 +"
b10 y
b10 !"
b10 &"
b101001 A"
b101001 V"
0O"
b10 ~
b0 W
b0 w
b0 $"
b101000 T"
b101001 R"
0U"
b101001 N"
b0 M"
b11100 ("
b10111 '"
b0 t
b0 }
b111 s
b111 |
b110011 r
b110011 {
b110011 #"
b11100 &#
b10111 $#
b10000 l"
b10000 }"
b10000 ~"
b1011010111110001110110011 q"
b1011010111110001110110011 v"
b101000 ="
b101000 X"
b101000 \"
b1 ?"
b1 Y"
b1 c"
1(#
b1100 :
b1100 \
b1100 n"
b1000 <
b1000 ]
b1000 p"
b1110010111111110000110011 @
b1110010111111110000110011 `
b1110010111111110000110011 ."
b1110010111111110000110011 r"
b10000 m"
b10000 y"
b10000 {"
b1100 o"
b1100 w"
b1100 z"
b1100 !#
b1 H
b1 E"
b1 J"
b1 b"
b1 g"
b1 -#
b1 =#
bx #
bx ;"
bx 5#
bx >#
bx H"
b100 8
b100 4"
b100 /#
b100 G"
b10101 0
b10101 8"
b10101 I"
b10101 ##
b10101 1#
1+
b1000 .
b1000 S
b1000 o
b1000 '#
b10101 /
b10101 R
b10101 n
b10101 %#
b1000 9
b1000 N
b1000 3"
b1000 j
b100 ;
b100 M
b100 i
b100 2"
b100 ^"
b10111 1
b10111 Q
b10111 m
b10111 7"
b10111 "#
b101100 5
b101100 B"
b101100 `"
b101100 k"
b101100 |"
b101000 A
b101000 L
b101000 g
b101000 1"
b101000 ["
b101000 _"
bx 4
bx O
bx k
bx 5"
bx a"
b1 )
b1 T
b1 q
b1 9"
b1100 u"
b1000 t"
b1110010111111110000110011 s"
1!
#500
0!
#550
0P"
0D
0%
0$
0)#
b0 S"
0Q"
0W"
1<"
b0 A"
b0 V"
0O"
b0 R"
0U"
b0 ?"
b0 Y"
b0 c"
b0 C
b0 D"
b0 d"
b0 ,#
b0 T"
b0 N"
b0 M"
b1 &
b1 V
b1 )"
b1 @"
b1 e"
b1 j"
b1 E#
b1 J#
b0 >"
b0 ]"
b0 h"
0(#
b0 ="
b0 X"
b0 \"
b1010 6#
b1010 ?#
b0 .
b0 S
b0 o
b0 '#
b0 /
b0 R
b0 n
b0 %#
b0 9
b0 N
b0 3"
b0 j
b0 ;
b0 M
b0 i
b0 2"
b0 ^"
b0 1
b0 Q
b0 m
b0 7"
b0 "#
b0 5
b0 B"
b0 `"
b0 k"
b0 |"
b0 A
b0 L
b0 g
b0 1"
b0 ["
b0 _"
b0 3
b0 P
b0 l
b0 6"
b0 f"
b0 4
b0 O
b0 k
b0 5"
b0 a"
b0 )
b0 T
b0 q
b0 9"
0I
0,
0p
b101001 H
b101001 E"
b101001 J"
b101001 b"
b101001 g"
b101001 -#
b101001 =#
b1000 8
b1000 4"
b1000 /#
b1000 G"
b10111 0
b10111 8"
b10111 I"
b10111 ##
b10111 1#
b1 (
b1 :"
b1 3#
b1 K"
b100 7
b100 0#
b100 9#
b100 B#
b100 H#
b10101 2
b10101 Y
b10101 ,"
b10101 *#
b10101 2#
b10101 :#
b1 G
b1 .#
b1 8#
b1 A#
b1 F#
1*
1!
#600
0!
#650
b11 e
b11 z
b11 ""
0<"
b1010 A"
b1010 V"
b10110 a
b10110 /"
b1 C
b1 D"
b1 d"
b1 ,#
b1 Z
b1 *"
b1111 T"
b1010 M"
b1010 &
b1010 V
b1010 )"
b1010 @"
b1010 e"
b1010 j"
b1010 E#
b1010 J#
b1111 ="
b1111 X"
b1111 \"
b11001 R"
b1111 N"
b10110 ("
b110 s
b110 |
b10110 &#
b10100 l"
b10100 }"
b10100 ~"
b1000001001010111000100110110011 q"
b1000001001010111000100110110011 v"
b0 6#
b0 ?#
b1111 >"
b1111 ]"
b1111 h"
b1010 ?"
b1010 Y"
b1010 c"
b10000 :
b10000 \
b10000 n"
b1100 <
b1100 ]
b1100 p"
b1011010111110001110110011 @
b1011010111110001110110011 `
b1011010111110001110110011 ."
b1011010111110001110110011 r"
b10100 m"
b10100 y"
b10100 {"
b10000 o"
b10000 w"
b10000 z"
b10000 !#
b1000 7
b1000 0#
b1000 9#
b1000 B#
b1000 H#
b10111 2
b10111 Y
b10111 ,"
b10111 *#
b10111 2#
b10111 :#
b1010 -
b1010 7#
b1010 ;#
b1010 C#
b1010 G#
b101001 G
b101001 .#
b101001 8#
b101001 A#
b101001 F#
b1 '
b1 4#
b1 <#
b1 D#
b1 I#
b0 H
b0 E"
b0 J"
b0 b"
b0 g"
b0 -#
b0 =#
b0 #
b0 ;"
b0 5#
b0 >#
b0 H"
b0 8
b0 4"
b0 /#
b0 G"
b0 0
b0 8"
b0 I"
b0 ##
b0 1#
b0 (
b0 :"
b0 3#
b0 K"
0+
b11100 .
b11100 S
b11100 o
b11100 '#
b10111 /
b10111 R
b10111 n
b10111 %#
b1100 9
b1100 N
b1100 3"
b1100 j
b1000 ;
b1000 M
b1000 i
b1000 2"
b1000 ^"
b11000 1
b11000 Q
b11000 m
b11000 7"
b11000 "#
b100100 5
b100100 B"
b100100 `"
b100100 k"
b100100 |"
b11100 A
b11100 L
b11100 g
b11100 1"
b11100 ["
b11100 _"
b1111 3
b1111 P
b1111 l
b1111 6"
b1111 f"
b1010 4
b1010 O
b1010 k
b1010 5"
b1010 a"
b10 J
b10 K
b10 f
b10 0"
b10 L"
1,
1p
b10000 u"
b1100 t"
b1011010111110001110110011 s"
1!
#700
0!
#750
b1 e
b1 z
b1 ""
1U"
b10000010010 a
b10000010010 /"
b0 S"
0Q"
b0 C
b0 D"
b0 d"
b0 ,#
b1010 ?"
b1010 Y"
b1010 c"
b11 ~
b1011 N"
b0 M"
b10010 ("
b100000 t
b100000 }
b0 s
b0 |
b10010 &#
b1 ="
b1 X"
b1 \"
b11111111111111111111111111111110 T"
b1001 R"
b1011 A"
b1011 V"
b0 &
b0 V
b0 )"
b0 @"
b0 e"
b0 j"
b0 E#
b0 J#
b11000 l"
b11000 }"
b11000 ~"
bx q"
bx v"
b10100 :
b10100 \
b10100 n"
b10000 <
b10000 ]
b10000 p"
b1000001001010111000100110110011 @
b1000001001010111000100110110011 `
b1000001001010111000100110110011 ."
b1000001001010111000100110110011 r"
b1 >"
b1 ]"
b1 h"
b11000 m"
b11000 y"
b11000 {"
b10100 o"
b10100 w"
b10100 z"
b10100 !#
b10100 u"
b10000 t"
b1000001001010111000100110110011 s"
b10110 .
b10110 S
b10110 o
b10110 '#
b10000 9
b10000 N
b10000 3"
b10000 j
b1100 ;
b1100 M
b1100 i
b1100 2"
b1100 ^"
b111 1
b111 Q
b111 m
b111 7"
b111 "#
b100010 5
b100010 B"
b100010 `"
b100010 k"
b100010 |"
b10110 A
b10110 L
b10110 g
b10110 1"
b10110 ["
b10110 _"
b1 3
b1 P
b1 l
b1 6"
b1 f"
b11 J
b11 K
b11 f
b11 0"
b11 L"
b1010 H
b1010 E"
b1010 J"
b1010 b"
b1010 g"
b1010 -#
b1010 =#
b1111 #
b1111 ;"
b1111 5#
b1111 >#
b1111 H"
b1100 8
b1100 4"
b1100 /#
b1100 G"
b11000 0
b11000 8"
b11000 I"
b11000 ##
b11000 1#
1+
b0 7
b0 0#
b0 9#
b0 B#
b0 H#
b0 2
b0 Y
b0 ,"
b0 *#
b0 2#
b0 :#
b0 -
b0 7#
b0 ;#
b0 C#
b0 G#
b0 G
b0 .#
b0 8#
b0 A#
b0 F#
b0 '
b0 4#
b0 <#
b0 D#
b0 I#
0*
1!
#800
0!
#850
xX
bx e
bx z
bx ""
bx Z
bx *"
bx [
bx +"
xd
bx y
bx !"
bx &"
bx a
bx /"
bx ~
xc
xv
x^
bx W
bx w
bx $"
bx b
bx x
bx %"
bx -"
x_
xu
b1010 &
b1010 V
b1010 )"
b1010 @"
b1010 e"
b1010 j"
b1010 E#
b1010 J#
1O"
b1001 A"
b1001 V"
bx ("
bx '"
bx t
bx }
bx s
bx |
bx r
bx {
bx #"
bx &#
bx $#
b11100 l"
b11100 }"
b11100 ~"
b11000 :
b11000 \
b11000 n"
b10100 <
b10100 ]
b10100 p"
bx @
bx `
bx ."
bx r"
b11100 m"
b11100 y"
b11100 {"
b11000 o"
b11000 w"
b11000 z"
b11000 !#
b1100 7
b1100 0#
b1100 9#
b1100 B#
b1100 H#
b11000 2
b11000 Y
b11000 ,"
b11000 *#
b11000 2#
b11000 :#
b1010 G
b1010 .#
b1010 8#
b1010 A#
b1010 F#
1*
b1011 H
b1011 E"
b1011 J"
b1011 b"
b1011 g"
b1011 -#
b1011 =#
b1 #
b1 ;"
b1 5#
b1 >#
b1 H"
b10000 8
b10000 4"
b10000 /#
b10000 G"
b111 0
b111 8"
b111 I"
b111 ##
b111 1#
b10010 .
b10010 S
b10010 o
b10010 '#
b10100 9
b10100 N
b10100 3"
b10100 j
b10000 ;
b10000 M
b10000 i
b10000 2"
b10000 ^"
b10011 1
b10011 Q
b10011 m
b10011 7"
b10011 "#
b10000100010 5
b10000100010 B"
b10000100010 `"
b10000100010 k"
b10000100010 |"
b10000010010 A
b10000010010 L
b10000010010 g
b10000010010 1"
b10000010010 ["
b10000010010 _"
b1 J
b1 K
b1 f
b1 0"
b1 L"
b11000 u"
b10100 t"
bx s"
1!
#900
0!
#950
x%
x$
x)#
xP"
b0x S"
xQ"
xW"
bx B
bx C"
bx i"
bx +#
bx C
bx D"
bx d"
bx ,#
x<"
xD
bx N"
bx M"
bx T"
bx R"
xU"
xO"
bx A"
bx V"
b1011 &
b1011 V
b1011 )"
b1011 @"
b1011 e"
b1011 j"
b1011 E#
b1011 J#
bx l"
bx }"
bx ~"
b11100 :
b11100 \
b11100 n"
b11000 <
b11000 ]
b11000 p"
bx >"
bx ]"
bx h"
bx ?"
bx Y"
bx c"
xE
x6
x(#
bx ="
bx X"
bx \"
b100000 m"
b100000 y"
b100000 {"
b11100 o"
b11100 w"
b11100 z"
b11100 !#
b11100 u"
b11000 t"
bx .
bx S
bx o
bx '#
bx /
bx R
bx n
bx %#
b11000 9
b11000 N
b11000 3"
b11000 j
b10100 ;
b10100 M
b10100 i
b10100 2"
b10100 ^"
bx 1
bx Q
bx m
bx 7"
bx "#
bx 5
bx B"
bx `"
bx k"
bx |"
bx A
bx L
bx g
bx 1"
bx ["
bx _"
bx 3
bx P
bx l
bx 6"
bx f"
bx 4
bx O
bx k
bx 5"
bx a"
x?
xF
bx )
bx T
bx q
bx 9"
x>
xh
xI
bx J
bx K
bx f
bx 0"
bx L"
x,
xp
b1001 H
b1001 E"
b1001 J"
b1001 b"
b1001 g"
b1001 -#
b1001 =#
b10100 8
b10100 4"
b10100 /#
b10100 G"
b10011 0
b10011 8"
b10011 I"
b10011 ##
b10011 1#
b10000 7
b10000 0#
b10000 9#
b10000 B#
b10000 H#
b111 2
b111 Y
b111 ,"
b111 *#
b111 2#
b111 :#
b1011 G
b1011 .#
b1011 8#
b1011 A#
b1011 F#
1!
#1000
0!
#1050
b1001 &
b1001 V
b1001 )"
b1001 @"
b1001 e"
b1001 j"
b1001 E#
b1001 J#
bx 6#
bx ?#
b10100 7
b10100 0#
b10100 9#
b10100 B#
b10100 H#
b10011 2
b10011 Y
b10011 ,"
b10011 *#
b10011 2#
b10011 :#
b1001 G
b1001 .#
b1001 8#
b1001 A#
b1001 F#
bx H
bx E"
bx J"
bx b"
bx g"
bx -#
bx =#
bx #
bx ;"
bx 5#
bx >#
bx H"
b11000 8
b11000 4"
b11000 /#
b11000 G"
bx 0
bx 8"
bx I"
bx ##
bx 1#
bx (
bx :"
bx 3#
bx K"
x=
xF"
x+
b11100 9
b11100 N
b11100 3"
b11100 j
b11000 ;
b11000 M
b11000 i
b11000 2"
b11000 ^"
1!
#1100
0!
#1150
bx &
bx V
bx )"
bx @"
bx e"
bx j"
bx E#
bx J#
b11100 8
b11100 4"
b11100 /#
b11100 G"
b11000 7
b11000 0#
b11000 9#
b11000 B#
b11000 H#
bx 2
bx Y
bx ,"
bx *#
bx 2#
bx :#
bx -
bx 7#
bx ;#
bx C#
bx G#
bx G
bx .#
bx 8#
bx A#
bx F#
bx '
bx 4#
bx <#
bx D#
bx I#
x*
1!
