dump.vcd
$date
	Mon Oct 14 09:55:50 2024
$end
$version
	Icarus Verilog
$end
$timescale
	1s
$end
$scope module Pipeline_tb $end
$var reg 1 ! clk $end
$var reg 1 " rst $end
$scope module CPU $end
$var wire 1 ! clk $end
$var wire 1 " rst $end
$var wire 32 # WriteDataM [31:0] $end
$var wire 1 $ StallF $end
$var wire 1 % StallD $end
$var wire 32 & ResultW [31:0] $end
$var wire 2 ' ResultSrcW [1:0] $end
$var wire 2 ( ResultSrcM [1:0] $end
$var wire 2 ) ResultSrcE [1:0] $end
$var wire 1 * RegWriteW $end
$var wire 1 + RegWriteM $end
$var wire 1 , RegWriteE $end
$var wire 32 - ReadDataW [31:0] $end
$var wire 5 . RS2_E [4:0] $end
$var wire 5 / RS1_E [4:0] $end
$var wire 5 0 RD_M [4:0] $end
$var wire 5 1 RD_E [4:0] $end
$var wire 5 2 RDW [4:0] $end
$var wire 32 3 RD2_E [31:0] $end
$var wire 32 4 RD1_E [31:0] $end
$var wire 32 5 PCTargetE [31:0] $end
$var wire 1 6 PCSrcE $end
$var wire 32 7 PCPlus4W [31:0] $end
$var wire 32 8 PCPlus4M [31:0] $end
$var wire 32 9 PCPlus4E [31:0] $end
$var wire 32 : PCPlus4D [31:0] $end
$var wire 32 ; PCE [31:0] $end
$var wire 32 < PCD [31:0] $end
$var wire 1 = MemWriteM $end
$var wire 1 > MemWriteE $end
$var wire 1 ? JumpE $end
$var wire 32 @ InstrD [31:0] $end
$var wire 32 A Imm_Ext_E [31:0] $end
$var wire 2 B ForwardBE [1:0] $end
$var wire 2 C ForwardAE [1:0] $end
$var wire 1 D FlushE $end
$var wire 1 E BranchE $end
$var wire 32 F ALU_ResultW [31:0] $end
$var wire 32 G ALU_ResultM [31:0] $end
$var wire 1 H ALUSrcE $end
$var wire 3 I ALUControlE [2:0] $end
$scope module Decode_Stage $end
$var wire 3 J ALUControlE [2:0] $end
$var wire 1 H ALUSrcE $end
$var wire 1 E BranchE $end
$var wire 32 K Imm_Ext_E [31:0] $end
$var wire 1 ? JumpE $end
$var wire 1 > MemWriteE $end
$var wire 32 L PCE [31:0] $end
$var wire 32 M PCPlus4E [31:0] $end
$var wire 32 N RD1_E [31:0] $end
$var wire 32 O RD2_E [31:0] $end
$var wire 5 P RD_E [4:0] $end
$var wire 5 Q RS1_E [4:0] $end
$var wire 5 R RS2_E [4:0] $end
$var wire 1 , RegWriteE $end
$var wire 2 S ResultSrcE [1:0] $end
$var wire 1 T Zero $end
$var wire 1 ! clk $end
$var wire 1 " rst $end
$var wire 32 U ResultW [31:0] $end
$var wire 2 V ResultSrcD [1:0] $end
$var wire 1 * RegWriteW $end
$var wire 1 W RegWriteD $end
$var wire 5 X RDW [4:0] $end
$var wire 32 Y RD2D [31:0] $end
$var wire 32 Z RD1D [31:0] $end
$var wire 32 [ PCPlus4D [31:0] $end
$var wire 32 \ PCD [31:0] $end
$var wire 1 ] MemWriteD $end
$var wire 1 ^ JumpD $end
$var wire 32 _ InstrD [31:0] $end
$var wire 32 ` Imm_ExtD [31:0] $end
$var wire 2 a ImmSrcD [1:0] $end
$var wire 1 D FlushE $end
$var wire 1 b BranchD $end
$var wire 1 c ALUSrcD $end
$var wire 3 d ALUControlD [2:0] $end
$var reg 3 e ALUControlD_r [2:0] $end
$var reg 1 H ALUSrcD_r $end
$var reg 1 E BranchD_r $end
$var reg 32 f Imm_ExtD_r [31:0] $end
$var reg 1 ? JumpD_r $end
$var reg 1 g MemWriteD_r $end
$var reg 32 h PCD_r [31:0] $end
$var reg 32 i PCPlus4D_r [31:0] $end
$var reg 32 j RD1D_r [31:0] $end
$var reg 32 k RD2D_r [31:0] $end
$var reg 5 l RD_D_r [4:0] $end
$var reg 5 m RS1_D_r [4:0] $end
$var reg 5 n RS2_D_r [4:0] $end
$var reg 1 o RegWriteD_r $end
$var reg 2 p ResultSrcD_r [1:0] $end
$scope module Control_Unit $end
$var wire 1 b Branch $end
$var wire 1 ^ Jump $end
$var wire 7 q Op [6:0] $end
$var wire 1 T Zero $end
$var wire 3 r funct3 [2:0] $end
$var wire 7 s funct7 [6:0] $end
$var wire 1 t jump $end
$var wire 1 u branch $end
$var wire 2 v ResultSrc [1:0] $end
$var wire 1 W RegWrite $end
$var wire 1 ] MemWrite $end
$var wire 2 w ImmSrc [1:0] $end
$var wire 1 c ALUSrc $end
$var wire 2 x ALUOp [1:0] $end
$var wire 3 y ALUControl [2:0] $end
$scope module alu_dec $end
$var wire 7 z Op [6:0] $end
$var wire 3 { funct3 [2:0] $end
$var wire 7 | funct7 [6:0] $end
$var wire 2 } concate [1:0] $end
$var wire 2 ~ ALUOp [1:0] $end
$var wire 3 !" ALUControl [2:0] $end
$upscope $end
$scope module main_dec $end
$var wire 7 "" Op [6:0] $end
$var wire 2 #" ResultSrc [1:0] $end
$var wire 1 W RegWrite $end
$var wire 1 ] MemWrite $end
$var wire 1 t Jump $end
$var wire 2 $" ImmSrc [1:0] $end
$var wire 1 u Branch $end
$var wire 1 c ALUSrc $end
$var wire 2 %" ALUOp [1:0] $end
$upscope $end
$upscope $end
$scope module Regiser_File $end
$var wire 5 &" A1 [4:0] $end
$var wire 5 '" A2 [4:0] $end
$var wire 1 ! clk $end
$var wire 1 " rst $end
$var wire 1 * WE3 $end
$var wire 32 (" WD3 [31:0] $end
$var wire 32 )" RD2 [31:0] $end
$var wire 32 *" RD1 [31:0] $end
$var wire 5 +" A3 [4:0] $end
$upscope $end
$scope module SignExtend $end
$var wire 2 ," ImmSrc [1:0] $end
$var wire 32 -" In [31:0] $end
$var wire 32 ." Imm_Ext [31:0] $end
$upscope $end
$upscope $end
$scope module Execute_Stage $end
$var wire 3 /" ALUControlE [2:0] $end
$var wire 1 H ALUSrcE $end
$var wire 1 E BranchE $end
$var wire 32 0" Imm_Ext_E [31:0] $end
$var wire 1 ? JumpE $end
$var wire 1 > MemWriteE $end
$var wire 1 = MemWriteM $end
$var wire 32 1" PCE [31:0] $end
$var wire 32 2" PCPlus4E [31:0] $end
$var wire 32 3" PCPlus4M [31:0] $end
$var wire 1 6 PCSrcE $end
$var wire 32 4" RD1_E [31:0] $end
$var wire 32 5" RD2_E [31:0] $end
$var wire 5 6" RD_E [4:0] $end
$var wire 5 7" RD_M [4:0] $end
$var wire 1 , RegWriteE $end
$var wire 1 + RegWriteM $end
$var wire 2 8" ResultSrcE [1:0] $end
$var wire 2 9" ResultSrcM [1:0] $end
$var wire 32 :" WriteDataM [31:0] $end
$var wire 1 ! clk $end
$var wire 1 " rst $end
$var wire 1 ;" ZeroE $end
$var wire 32 <" SrcBE [31:0] $end
$var wire 32 =" SrcB [31:0] $end
$var wire 32 >" SrcAE [31:0] $end
$var wire 32 ?" ResultW [31:0] $end
$var wire 32 @" ResultE [31:0] $end
$var wire 32 A" PCTargetE [31:0] $end
$var wire 2 B" ForwardB_E [1:0] $end
$var wire 2 C" ForwardA_E [1:0] $end
$var wire 32 D" ALU_ResultM [31:0] $end
$var reg 1 E" MemWriteE_r $end
$var reg 32 F" PCPlus4E_r [31:0] $end
$var reg 32 G" RD2_E_r [31:0] $end
$var reg 5 H" RD_E_r [4:0] $end
$var reg 1 + RegWriteE_r $end
$var reg 32 I" ResultE_r [31:0] $end
$var reg 2 J" ResultSrcE_r [1:0] $end
$scope module ALU $end
$var wire 3 K" ALUControl [2:0] $end
$var wire 32 L" AandB [31:0] $end
$var wire 32 M" AorB [31:0] $end
$var wire 1 N" Carry $end
$var wire 1 O" OverFlow $end
$var wire 1 P" Zeroextnd $end
$var wire 32 Q" sum [31:0] $end
$var wire 32 R" slt [31:0] $end
$var wire 32 S" mux1 [31:0] $end
$var wire 1 T" cout $end
$var wire 1 ;" Zero $end
$var wire 32 U" Result [31:0] $end
$var wire 1 V" Negative $end
$var wire 32 W" B [31:0] $end
$var wire 32 X" A [31:0] $end
$var parameter 32 Y" n $end
$upscope $end
$scope module ALU_Src_MUX $end
$var wire 32 Z" b [31:0] $end
$var wire 1 H s $end
$var wire 32 [" y [31:0] $end
$var wire 32 \" a [31:0] $end
$upscope $end
$scope module Branch_adder $end
$var wire 32 ]" a [31:0] $end
$var wire 32 ^" b [31:0] $end
$var wire 32 _" c [31:0] $end
$upscope $end
$scope module SrcAMux $end
$var wire 32 `" a [31:0] $end
$var wire 32 a" c [31:0] $end
$var wire 32 b" y [31:0] $end
$var wire 2 c" s [1:0] $end
$var wire 32 d" b [31:0] $end
$upscope $end
$scope module SrcBMux $end
$var wire 32 e" a [31:0] $end
$var wire 32 f" c [31:0] $end
$var wire 32 g" y [31:0] $end
$var wire 2 h" s [1:0] $end
$var wire 32 i" b [31:0] $end
$upscope $end
$upscope $end
$scope module Fetch_Stage $end
$var wire 1 6 PCSrcE $end
$var wire 32 j" PCTargetE [31:0] $end
$var wire 1 ! clk $end
$var wire 1 " rst $end
$var wire 1 $ StallF $end
$var wire 1 % StallD $end
$var wire 32 k" PC_F [31:0] $end
$var wire 32 l" PCPlus4F [31:0] $end
$var wire 32 m" PCPlus4D [31:0] $end
$var wire 32 n" PCF [31:0] $end
$var wire 32 o" PCD [31:0] $end
$var wire 32 p" InstrF [31:0] $end
$var wire 32 q" InstrD [31:0] $end
$var reg 32 r" InstrF_reg [31:0] $end
$var reg 32 s" PCF_reg [31:0] $end
$var reg 32 t" PCPlus4F_reg [31:0] $end
$scope module IMEM $end
$var wire 1 " rst $end
$var wire 32 u" RD [31:0] $end
$var wire 32 v" A [31:0] $end
$upscope $end
$scope module PCAdder $end
$var wire 32 w" b [31:0] $end
$var wire 32 x" c [31:0] $end
$var wire 32 y" a [31:0] $end
$upscope $end
$scope module PC_MUX $end
$var wire 32 z" a [31:0] $end
$var wire 32 {" b [31:0] $end
$var wire 1 6 s $end
$var wire 32 |" y [31:0] $end
$upscope $end
$scope module programm_counter $end
$var wire 32 }" PC_NEXT [31:0] $end
$var wire 1 ! clk $end
$var wire 1 " rst $end
$var wire 1 $ En $end
$var reg 32 ~" PC [31:0] $end
$upscope $end
$upscope $end
$scope module Forwarding_Block $end
$var wire 1 D FlushE $end
$var wire 5 !# RD_E [4:0] $end
$var wire 5 "# RD_M [4:0] $end
$var wire 5 ## RS1_D [4:0] $end
$var wire 5 $# RS1_E [4:0] $end
$var wire 5 %# RS2_D [4:0] $end
$var wire 5 &# RS2_E [4:0] $end
$var wire 1 + RegWriteM $end
$var wire 1 '# ResultSrcE0 $end
$var wire 1 % StallD $end
$var wire 1 $ StallF $end
$var wire 1 " rst $end
$var wire 1 (# lwStall $end
$var wire 1 * RegWriteW $end
$var wire 5 )# RD_W [4:0] $end
$var wire 2 *# ForwardBE [1:0] $end
$var wire 2 +# ForwardAE [1:0] $end
$upscope $end
$scope module Memory_Stage $end
$var wire 32 ,# ALU_ResultM [31:0] $end
$var wire 32 -# ALU_ResultW [31:0] $end
$var wire 1 = MemWriteM $end
$var wire 32 .# PCPlus4M [31:0] $end
$var wire 32 /# PCPlus4W [31:0] $end
$var wire 5 0# RD_M [4:0] $end
$var wire 5 1# RD_W [4:0] $end
$var wire 1 + RegWriteM $end
$var wire 1 * RegWriteW $end
$var wire 2 2# ResultSrcM [1:0] $end
$var wire 2 3# ResultSrcW [1:0] $end
$var wire 32 4# WriteDataM [31:0] $end
$var wire 1 ! clk $end
$var wire 1 " rst $end
$var wire 32 5# ReadMem [31:0] $end
$var wire 32 6# ReadDataW [31:0] $end
$var reg 32 7# ALU_ResultM_r [31:0] $end
$var reg 32 8# PCPlus4M_r [31:0] $end
$var reg 5 9# RD_M_r [4:0] $end
$var reg 32 :# ReadMem_r [31:0] $end
$var reg 1 * RegWriteM_r $end
$var reg 2 ;# ResultSrcM_r [1:0] $end
$scope module Data_Memory $end
$var wire 32 <# A [31:0] $end
$var wire 32 =# WD [31:0] $end
$var wire 1 = WE $end
$var wire 1 ! clk $end
$var wire 1 " rst $end
$var wire 32 ># RD [31:0] $end
$var integer 32 ?# i [31:0] $end
$upscope $end
$upscope $end
$scope module WriteBack_Stage $end
$var wire 32 @# ALU_ResultW [31:0] $end
$var wire 32 A# PCPlus4W [31:0] $end
$var wire 32 B# ReadDataW [31:0] $end
$var wire 2 C# ResultSrcW [1:0] $end
$var wire 1 ! clk $end
$var wire 1 " rst $end
$var wire 32 D# ResultW [31:0] $end
$scope module WriteBack_Mux $end
$var wire 32 E# a [31:0] $end
$var wire 32 F# b [31:0] $end
$var wire 32 G# c [31:0] $end
$var wire 2 H# s [1:0] $end
$var wire 32 I# y [31:0] $end
$upscope $end
$upscope $end
$upscope $end
$upscope $end
$enddefinitions $end
$comment Show the parameter values. $end
$dumpall
b100000 Y"
$end
#0
$dumpvars
b0 I#
b0 H#
b0 G#
b0 F#
b0 E#
b0 D#
b0 C#
b0 B#
b0 A#
b0 @#
b10000000000 ?#
b0 >#
b0 =#
b0 <#
b0 ;#
b0 :#
b0 9#
b0 8#
b0 7#
b0 6#
b0 5#
b0 4#
b0 3#
b0 2#
b0 1#
b0 0#
b0 /#
b0 .#
b0 -#
b0 ,#
b0 +#
b0 *#
b0 )#
0(#
0'#
b0 &#
b0 %#
b0 $#
b0 ##
b0 "#
b0 !#
bx ~"
bx }"
bx |"
b0 {"
bx z"
bx y"
bx x"
b100 w"
bx v"
b0 u"
b0 t"
b0 s"
b0 r"
b0 q"
b0 p"
b0 o"
bx n"
b0 m"
bx l"
bx k"
b0 j"
b0 i"
b0 h"
b0 g"
b0 f"
b0 e"
b0 d"
b0 c"
b0 b"
b0 a"
b0 `"
b0 _"
b0 ^"
b0 ]"
b0 \"
b0 ["
b0 Z"
b0 X"
b0 W"
0V"
b0 U"
0T"
b0 S"
b0 R"
b0 Q"
0P"
0O"
0N"
b0 M"
b0 L"
b0 K"
b0 J"
b0 I"
b0 H"
b0 G"
b0 F"
0E"
b0 D"
b0 C"
b0 B"
b0 A"
b0 @"
b0 ?"
b0 >"
b0 ="
b0 <"
1;"
b0 :"
b0 9"
b0 8"
b0 7"
b0 6"
b0 5"
b0 4"
b0 3"
b0 2"
b0 1"
b0 0"
b0 /"
b0 ."
b0 -"
b0 ,"
b0 +"
b0 *"
b0 )"
b0 ("
b0 '"
b0 &"
b0 %"
b0 $"
b0 #"
b0 ""
b0 !"
b0 ~
b0 }
b0 |
b0 {
b0 z
b0 y
b0 x
b0 w
b0 v
0u
0t
b0 s
b0 r
b0 q
b0 p
0o
b0 n
b0 m
b0 l
b0 k
b0 j
b0 i
b0 h
0g
b0 f
b0 e
b0 d
0c
0b
b0 a
b0 `
b0 _
0^
0]
b0 \
b0 [
b0 Z
b0 Y
b0 X
0W
b0 V
b0 U
zT
b0 S
b0 R
b0 Q
b0 P
b0 O
b0 N
b0 M
b0 L
b0 K
b0 J
b0 I
0H
b0 G
b0 F
0E
0D
b0 C
b0 B
b0 A
b0 @
0?
0>
0=
b0 <
b0 ;
b0 :
b0 9
b0 8
b0 7
06
b0 5
b0 4
b0 3
b0 2
b0 1
b0 0
b0 /
b0 .
b0 -
0,
0+
0*
b0 )
b0 (
b0 '
b0 &
0%
0$
b0 #
0"
0!
$end
#50
b100 k"
b100 |"
b100 }"
b100 l"
b100 x"
b100 z"
b0 n"
b0 v"
b0 y"
b0 ~"
1!
#100
0!
#150
1!
#200
b100000000101010010011 p"
b100000000101010010011 u"
0!
1"
#250
b1 `
b1 ."
1W
bx Y
bx )"
1c
b10 x
b10 ~
b10 %"
b1 '"
b10011 q
b10011 z
b10011 ""
b1 %#
b1000 k"
b1000 |"
b1000 }"
b10100010101010101110000011 p"
b10100010101010101110000011 u"
b100 :
b100 [
b100 m"
b100000000101010010011 @
b100000000101010010011 _
b100000000101010010011 -"
b100000000101010010011 q"
b1000 l"
b1000 x"
b1000 z"
b100 n"
b100 v"
b100 y"
b100 ~"
b100 t"
b100000000101010010011 r"
1!
#300
0!
#350
b101000 `
b101000 ."
1W
0;"
bx Z
bx *"
1c
b0 x
b0 ~
b0 %"
b1 @"
b1 U"
b1 V
b1 v
b1 #"
b1 Q"
b1000 '"
b10101 &"
b1 s
b1 |
b10 r
b10 {
b11 q
b11 z
b11 ""
b1000 %#
b10101 ##
b1 S"
b1 M"
b1100 k"
b1100 |"
b1100 }"
b1110010111111110000110011 p"
b1110010111111110000110011 u"
b1000 :
b1000 [
b1000 m"
b100 <
b100 \
b100 o"
b10100010101010101110000011 @
b10100010101010101110000011 _
b10100010101010101110000011 -"
b10100010101010101110000011 q"
bx ="
bx \"
bx g"
b1 <"
b1 W"
b1 ["
b1100 l"
b1100 x"
b1100 z"
b1000 n"
b1000 v"
b1000 y"
b1000 ~"
b1000 t"
b100 s"
b10100010101010101110000011 r"
b1 .
b1 R
b1 n
b1 &#
b100 9
b100 M
b100 2"
b100 i
b10101 1
b10101 P
b10101 l
b10101 6"
b10101 !#
b1 5
b1 A"
b1 _"
b1 j"
b1 {"
b1 A
b1 K
b1 f
b1 0"
b1 Z"
b1 ^"
bx 3
bx O
bx k
bx 5"
bx e"
1H
1,
1o
1!
#400
0!
#450
b10 d
b10 y
b10 !"
1D
1%
1$
1(#
0O"
b11100 `
b11100 ."
0c
b10 C
b10 C"
b10 c"
b10 +#
b0 R"
0P"
0V"
0;"
b1111 Y
b1111 )"
b1010 Z
b1010 *"
b10 x
b10 ~
b10 %"
b101001 @"
b101001 U"
0N"
b10 }
b0 V
b0 v
b0 #"
b101000 S"
b101001 Q"
0T"
b101001 M"
b0 L"
b11100 '"
b10111 &"
b0 s
b0 |
b111 r
b111 {
b110011 q
b110011 z
b110011 ""
b11100 %#
b10111 ##
b10000 k"
b10000 |"
b10000 }"
b1011010111110001110110011 p"
b1011010111110001110110011 u"
b101000 <"
b101000 W"
b101000 ["
b1 >"
b1 X"
b1 b"
1'#
b1100 :
b1100 [
b1100 m"
b1000 <
b1000 \
b1000 o"
b1110010111111110000110011 @
b1110010111111110000110011 _
b1110010111111110000110011 -"
b1110010111111110000110011 q"
b10000 l"
b10000 x"
b10000 z"
b1100 n"
b1100 v"
b1100 y"
b1100 ~"
b1 G
b1 D"
b1 I"
b1 a"
b1 f"
b1 ,#
b1 <#
bx #
bx :"
bx 4#
bx =#
bx G"
b100 8
b100 3"
b100 .#
b100 F"
b10101 0
b10101 7"
b10101 H"
b10101 "#
b10101 0#
1+
b1000 .
b1000 R
b1000 n
b1000 &#
b10101 /
b10101 Q
b10101 m
b10101 $#
b1000 9
b1000 M
b1000 2"
b1000 i
b100 ;
b100 L
b100 h
b100 1"
b100 ]"
b10111 1
b10111 P
b10111 l
b10111 6"
b10111 !#
b101100 5
b101100 A"
b101100 _"
b101100 j"
b101100 {"
b101000 A
b101000 K
b101000 f
b101000 0"
b101000 Z"
b101000 ^"
bx 4
bx N
bx j
bx 4"
bx `"
b1 )
b1 S
b1 p
b1 8"
b1100 t"
b1000 s"
b1110010111111110000110011 r"
1!
#500
0!
#550
0O"
0D
0%
0$
0(#
b0 R"
0P"
0V"
1;"
b0 @"
b0 U"
0N"
b0 Q"
0T"
b0 >"
b0 X"
b0 b"
b0 C
b0 C"
b0 c"
b0 +#
b0 S"
b0 M"
b0 L"
b1 &
b1 U
b1 ("
b1 ?"
b1 d"
b1 i"
b1 D#
b1 I#
b0 ="
b0 \"
b0 g"
0'#
b0 <"
b0 W"
b0 ["
b1010 5#
b1010 >#
b0 .
b0 R
b0 n
b0 &#
b0 /
b0 Q
b0 m
b0 $#
b0 9
b0 M
b0 2"
b0 i
b0 ;
b0 L
b0 h
b0 1"
b0 ]"
b0 1
b0 P
b0 l
b0 6"
b0 !#
b0 5
b0 A"
b0 _"
b0 j"
b0 {"
b0 A
b0 K
b0 f
b0 0"
b0 Z"
b0 ^"
b0 3
b0 O
b0 k
b0 5"
b0 e"
b0 4
b0 N
b0 j
b0 4"
b0 `"
b0 )
b0 S
b0 p
b0 8"
0H
0,
0o
b101001 G
b101001 D"
b101001 I"
b101001 a"
b101001 f"
b101001 ,#
b101001 <#
b1000 8
b1000 3"
b1000 .#
b1000 F"
b10111 0
b10111 7"
b10111 H"
b10111 "#
b10111 0#
b1 (
b1 9"
b1 2#
b1 J"
b100 7
b100 /#
b100 8#
b100 A#
b100 G#
b10101 2
b10101 X
b10101 +"
b10101 )#
b10101 1#
b10101 9#
b1 F
b1 -#
b1 7#
b1 @#
b1 E#
1*
1!
#600
0!
#650
b11 d
b11 y
b11 !"
0;"
b1010 @"
b1010 U"
b10110 `
b10110 ."
b1 C
b1 C"
b1 c"
b1 +#
b1 Y
b1 )"
b1111 S"
b1010 L"
b1010 &
b1010 U
b1010 ("
b1010 ?"
b1010 d"
b1010 i"
b1010 D#
b1010 I#
b1111 <"
b1111 W"
b1111 ["
b11001 Q"
b1111 M"
b10110 '"
b110 r
b110 {
b10110 %#
b10100 k"
b10100 |"
b10100 }"
b1000001001010111000100110110011 p"
b1000001001010111000100110110011 u"
b0 5#
b0 >#
b1111 ="
b1111 \"
b1111 g"
b1010 >"
b1010 X"
b1010 b"
b10000 :
b10000 [
b10000 m"
b1100 <
b1100 \
b1100 o"
b1011010111110001110110011 @
b1011010111110001110110011 _
b1011010111110001110110011 -"
b1011010111110001110110011 q"
b10100 l"
b10100 x"
b10100 z"
b10000 n"
b10000 v"
b10000 y"
b10000 ~"
b1000 7
b1000 /#
b1000 8#
b1000 A#
b1000 G#
b10111 2
b10111 X
b10111 +"
b10111 )#
b10111 1#
b10111 9#
b1010 -
b1010 6#
b1010 :#
b1010 B#
b1010 F#
b101001 F
b101001 -#
b101001 7#
b101001 @#
b101001 E#
b1 '
b1 3#
b1 ;#
b1 C#
b1 H#
b0 G
b0 D"
b0 I"
b0 a"
b0 f"
b0 ,#
b0 <#
b0 #
b0 :"
b0 4#
b0 =#
b0 G"
b0 8
b0 3"
b0 .#
b0 F"
b0 0
b0 7"
b0 H"
b0 "#
b0 0#
b0 (
b0 9"
b0 2#
b0 J"
0+
b11100 .
b11100 R
b11100 n
b11100 &#
b10111 /
b10111 Q
b10111 m
b10111 $#
b1100 9
b1100 M
b1100 2"
b1100 i
b1000 ;
b1000 L
b1000 h
b1000 1"
b1000 ]"
b11000 1
b11000 P
b11000 l
b11000 6"
b11000 !#
b100100 5
b100100 A"
b100100 _"
b100100 j"
b100100 {"
b11100 A
b11100 K
b11100 f
b11100 0"
b11100 Z"
b11100 ^"
b1111 3
b1111 O
b1111 k
b1111 5"
b1111 e"
b1010 4
b1010 N
b1010 j
b1010 4"
b1010 `"
b10 I
b10 J
b10 e
b10 /"
b10 K"
1,
1o
b10000 t"
b1100 s"
b1011010111110001110110011 r"
1!
#700
0!
#750
b1 d
b1 y
b1 !"
1T"
b10000010010 `
b10000010010 ."
b0 R"
0P"
b0 C
b0 C"
b0 c"
b0 +#
b1010 >"
b1010 X"
b1010 b"
b11 }
b1011 M"
b0 L"
b10010 '"
b100000 s
b100000 |
b0 r
b0 {
b10010 %#
b1 <"
b1 W"
b1 ["
b11111111111111111111111111111110 S"
b1001 Q"
b1011 @"
b1011 U"
b0 &
b0 U
b0 ("
b0 ?"
b0 d"
b0 i"
b0 D#
b0 I#
b11000 k"
b11000 |"
b11000 }"
bx p"
bx u"
b10100 :
b10100 [
b10100 m"
b10000 <
b10000 \
b10000 o"
b1000001001010111000100110110011 @
b1000001001010111000100110110011 _
b1000001001010111000100110110011 -"
b1000001001010111000100110110011 q"
b1 ="
b1 \"
b1 g"
b11000 l"
b11000 x"
b11000 z"
b10100 n"
b10100 v"
b10100 y"
b10100 ~"
b10100 t"
b10000 s"
b1000001001010111000100110110011 r"
b10110 .
b10110 R
b10110 n
b10110 &#
b10000 9
b10000 M
b10000 2"
b10000 i
b1100 ;
b1100 L
b1100 h
b1100 1"
b1100 ]"
b111 1
b111 P
b111 l
b111 6"
b111 !#
b100010 5
b100010 A"
b100010 _"
b100010 j"
b100010 {"
b10110 A
b10110 K
b10110 f
b10110 0"
b10110 Z"
b10110 ^"
b1 3
b1 O
b1 k
b1 5"
b1 e"
b11 I
b11 J
b11 e
b11 /"
b11 K"
b1010 G
b1010 D"
b1010 I"
b1010 a"
b1010 f"
b1010 ,#
b1010 <#
b1111 #
b1111 :"
b1111 4#
b1111 =#
b1111 G"
b1100 8
b1100 3"
b1100 .#
b1100 F"
b11000 0
b11000 7"
b11000 H"
b11000 "#
b11000 0#
1+
b0 7
b0 /#
b0 8#
b0 A#
b0 G#
b0 2
b0 X
b0 +"
b0 )#
b0 1#
b0 9#
b0 -
b0 6#
b0 :#
b0 B#
b0 F#
b0 F
b0 -#
b0 7#
b0 @#
b0 E#
b0 '
b0 3#
b0 ;#
b0 C#
b0 H#
0*
1!
#800
0!
#850
xW
bx d
bx y
bx !"
bx Y
bx )"
bx Z
bx *"
xc
bx x
bx ~
bx %"
bx `
bx ."
bx }
xb
xu
x]
bx V
bx v
bx #"
bx a
bx w
bx $"
bx ,"
x^
xt
b1010 &
b1010 U
b1010 ("
b1010 ?"
b1010 d"
b1010 i"
b1010 D#
b1010 I#
1N"
b1001 @"
b1001 U"
bx '"
bx &"
bx s
bx |
bx r
bx {
bx q
bx z
bx ""
bx %#
bx ##
b11100 k"
b11100 |"
b11100 }"
b11000 :
b11000 [
b11000 m"
b10100 <
b10100 \
b10100 o"
bx @
bx _
bx -"
bx q"
b11100 l"
b11100 x"
b11100 z"
b11000 n"
b11000 v"
b11000 y"
b11000 ~"
b1100 7
b1100 /#
b1100 8#
b1100 A#
b1100 G#
b11000 2
b11000 X
b11000 +"
b11000 )#
b11000 1#
b11000 9#
b1010 F
b1010 -#
b1010 7#
b1010 @#
b1010 E#
1*
b1011 G
b1011 D"
b1011 I"
b1011 a"
b1011 f"
b1011 ,#
b1011 <#
b1 #
b1 :"
b1 4#
b1 =#
b1 G"
b10000 8
b10000 3"
b10000 .#
b10000 F"
b111 0
b111 7"
b111 H"
b111 "#
b111 0#
b10010 .
b10010 R
b10010 n
b10010 &#
b10100 9
b10100 M
b10100 2"
b10100 i
b10000 ;
b10000 L
b10000 h
b10000 1"
b10000 ]"
b10011 1
b10011 P
b10011 l
b10011 6"
b10011 !#
b10000100010 5
b10000100010 A"
b10000100010 _"
b10000100010 j"
b10000100010 {"
b10000010010 A
b10000010010 K
b10000010010 f
b10000010010 0"
b10000010010 Z"
b10000010010 ^"
b1 I
b1 J
b1 e
b1 /"
b1 K"
b11000 t"
b10100 s"
bx r"
1!
#900
0!
#950
xD
x%
x$
x(#
xO"
b0x R"
xP"
xV"
bx B
bx B"
bx h"
bx *#
bx C
bx C"
bx c"
bx +#
x;"
bx M"
bx L"
bx S"
bx Q"
xT"
xN"
bx @"
bx U"
b1011 &
b1011 U
b1011 ("
b1011 ?"
b1011 d"
b1011 i"
b1011 D#
b1011 I#
bx k"
bx |"
bx }"
b11100 :
b11100 [
b11100 m"
b11000 <
b11000 \
b11000 o"
bx ="
bx \"
bx g"
bx >"
bx X"
bx b"
x6
x'#
bx <"
bx W"
bx ["
b100000 l"
b100000 x"
b100000 z"
b11100 n"
b11100 v"
b11100 y"
b11100 ~"
b11100 t"
b11000 s"
bx .
bx R
bx n
bx &#
bx /
bx Q
bx m
bx $#
b11000 9
b11000 M
b11000 2"
b11000 i
b10100 ;
b10100 L
b10100 h
b10100 1"
b10100 ]"
bx 1
bx P
bx l
bx 6"
bx !#
bx 5
bx A"
bx _"
bx j"
bx {"
bx A
bx K
bx f
bx 0"
bx Z"
bx ^"
bx 3
bx O
bx k
bx 5"
bx e"
bx 4
bx N
bx j
bx 4"
bx `"
x?
xE
bx )
bx S
bx p
bx 8"
x>
xg
xH
bx I
bx J
bx e
bx /"
bx K"
x,
xo
b1001 G
b1001 D"
b1001 I"
b1001 a"
b1001 f"
b1001 ,#
b1001 <#
b10100 8
b10100 3"
b10100 .#
b10100 F"
b10011 0
b10011 7"
b10011 H"
b10011 "#
b10011 0#
b10000 7
b10000 /#
b10000 8#
b10000 A#
b10000 G#
b111 2
b111 X
b111 +"
b111 )#
b111 1#
b111 9#
b1011 F
b1011 -#
b1011 7#
b1011 @#
b1011 E#
1!
#1000
0!
#1050
b1001 &
b1001 U
b1001 ("
b1001 ?"
b1001 d"
b1001 i"
b1001 D#
b1001 I#
bx 5#
bx >#
b10100 7
b10100 /#
b10100 8#
b10100 A#
b10100 G#
b10011 2
b10011 X
b10011 +"
b10011 )#
b10011 1#
b10011 9#
b1001 F
b1001 -#
b1001 7#
b1001 @#
b1001 E#
bx G
bx D"
bx I"
bx a"
bx f"
bx ,#
bx <#
bx #
bx :"
bx 4#
bx =#
bx G"
b11000 8
b11000 3"
b11000 .#
b11000 F"
bx 0
bx 7"
bx H"
bx "#
bx 0#
bx (
bx 9"
bx 2#
bx J"
x=
xE"
x+
b11100 9
b11100 M
b11100 2"
b11100 i
b11000 ;
b11000 L
b11000 h
b11000 1"
b11000 ]"
1!
#1100
0!
#1150
bx &
bx U
bx ("
bx ?"
bx d"
bx i"
bx D#
bx I#
b11100 8
b11100 3"
b11100 .#
b11100 F"
b11000 7
b11000 /#
b11000 8#
b11000 A#
b11000 G#
bx 2
bx X
bx +"
bx )#
bx 1#
bx 9#
bx -
bx 6#
bx :#
bx B#
bx F#
bx F
bx -#
bx 7#
bx @#
bx E#
bx '
bx 3#
bx ;#
bx C#
bx H#
x*
1!
